{
  "prefix": "{",
  "token": "BOT TOKEN HERE",
  "owner": "OWNER ID HERE",
  "who": "I'm a robot soldier from the early 2000s game Cave Story",
  "botName": "Curly Brace",
  "botCommand": "curly",
  "game": "{help || {install"
}
