{
  "221007185453383691": {
    "172137993665118208": {
      "balance": 0,
      "totalBalance": 0,
      "lastCashedIn": 0
    }
  },
  "259712409659244555": {
    "172137993665118208": {
      "balance": 0,
      "totalBalance": 0,
      "lastCashedIn": 0
    }
  }
}